2 L2 // Предобработка данных. Дата и время. Визуализация данных – L // WLM 2023
…
str_c('first', 'second', 'third', sep = "|")

[1] "first|second|third"

stri_c('first', 'second', 'third')

[1] "firstsecondthird"

stri_c('first', 'second', 'third', sep = " & ")

[1] "first & second & third"

ds_1

# A tibble: 150 × 4
      id scale  item score
   <int> <chr> <int> <int>
 1     1 A         1     4
 2     1 A         2     1
 3     1 A         3     5
 4     1 A         4     1
 5     1 A         5     5
 6     1 B         1     1
 7     1 B         2     2
 8     1 B         3     5
 9     1 B         4     3
10     1 B         5     5
# ℹ 140 more rows

ds_1 %>% 
  unite(scale_item, scale, item, sep = "_") -> ds_2
ds_2

# A tibble: 150 × 3
      id scale_item score
   <int> <chr>      <int>
 1     1 A_1            4
 2     1 A_2            1
 3     1 A_3            5
 4     1 A_4            1
 5     1 A_5            5
 6     1 B_1            1
 7     1 B_2            2
 8     1 B_3            5
 9     1 B_4            3
10     1 B_5            5
# ℹ 140 more rows

2.33.2 Разделение строк

str_split("first second third", pattern = " ")

[[1]]
[1] "first"  "second" "third" 

ds_2 %>% 
  separate(scale_item, into = c("scale", "item"))

# A tibble: 150 × 4
      id scale item  score
   <int> <chr> <chr> <int>
 1     1 A     1         4
 2     1 A     2         1
 3     1 A     3         5
 4     1 A     4         1
 5     1 A     5         5
 6     1 B     1         1
 7     1 B     2         2
 8     1 B     3         5
 9     1 B     4         3
10     1 B     5         5
# ℹ 140 more rows
…
